[2020-01-17 20:24:34.611] [sharedprocess] [info] main {"machineId":"fc9ae5f5ba0132836c587e27c904e9c938f3db885e43c2a08c763d6a1e7d4051","windowId":2}
[2020-01-17 20:25:14.621] [sharedprocess] [info] Starting to clean up unused language packs.
[2020-01-17 20:25:16.418] [sharedprocess] [info] Uninstalling extension: shan.code-settings-sync
[2020-01-17 20:25:16.565] [sharedprocess] [info] Successfully uninstalled extension: shan.code-settings-sync
