Looking for git in: C:\Program Files\Git\cmd\git.exe
Using git 2.24.1.windows.2 from C:\Program Files\Git\cmd\git.exe
> git rev-parse --show-toplevel
> git rev-parse --git-dir
Open repository: d:\playground\vue\myapp4
> git status -z -u
> git symbolic-ref --short HEAD
> git rev-parse master
> git rev-parse --symbolic-full-name master@{u}
fatal: no upstream configured for branch 'master'
> git for-each-ref --format %(refname) %(objectname) --sort -committerdate
> git remote --verbose
> git config --get commit.template
> git check-ignore -v -z --stdin
> git check-ignore -v -z --stdin
> git check-ignore -v -z --stdin
> git show :src/App.vue
> git ls-files --stage -- d:\playground\vue\myapp4\src\App.vue
> git cat-file -s d609b76f4d28570bbe4e0be8de921a32303c495d
> git show :src/App.vue
> git ls-files --stage -- d:\playground\vue\myapp4\src\App.vue
> git cat-file -s d609b76f4d28570bbe4e0be8de921a32303c495d
